[
  {
    "number": 1,
    "name": "AURORA",
    "surname": "",
    "link": "https://open.spotify.com/track/6eRypJgzhb4DWBbjITECOb?si=Hs0nNpNjSUClay4a7NwcJg"
  },
  {
    "number": 2,
    "name": "SYML",
    "surname": "",
    "link": "https://open.spotify.com/track/21xRlfE6OjTAFQ4wd9u8IU?si=ZHy1njQ6T-edVjFnB5ymng"
  },
  {
    "number": 3,
    "name": "Daughter",
    "surname": "",
    "link": "https://open.spotify.com/track/2Ddw6YzFbBosbNm3MB1LaS?si=MX1rZbDzRjW9Yqd0L7-gFA"
  },
  {
    "number": 4,
    "name": "empty",
    "surname": "empty",
    "link": "e"
  },
  {
    "number": 5,
    "name": "empty",
    "surname": "empty",
    "link": ""
  },
  {
    "number": 6,
    "name": "empty",
    "surname": "empty",
    "link": ""
  },
  {
    "number": 7,
    "name": "empty",
    "surname": "empty",
    "link": ""
  },
  {
    "number": 8,
    "name": "empty",
    "surname": "empty",
    "link": ""
  },
  {
    "number": 9,
    "name": "empty",
    "surname": "empty",
    "link": ""
  },
  {
    "number": 10,
    "name": "empty",
    "surname": "empty",
    "link": ""
  },
  {
    "number": 11,
    "name": "empty",
    "surname": "empty",
    "link": ""
  },
  {
    "number": 12,
    "name": "empty",
    "surname": "empty",
    "link": ""
  },
  {
    "number": 13,
    "name": "empty",
    "surname": "empty",
    "link": ""
  },
  {
    "number": 14,
    "name": "empty",
    "surname": "empty",
    "link": ""
  },
  {
    "number": 15,
    "name": "empty",
    "surname": "empty",
    "link": ""
  },
  {
    "number": 16,
    "name": "empty",
    "surname": "empty",
    "link": ""
  },
  {
    "number": 17,
    "name": "empty",
    "surname": "empty",
    "link": ""
  },
  {
    "number": 18,
    "name": "empty",
    "surname": "empty",
    "link": ""
  },
  {
    "number": 19,
    "name": "empty",
    "surname": "empty",
    "link": ""
  },
  {
    "number": 20,
    "name": "empty",
    "surname": "empty",
    "link": ""
  }
]
