[
  {
    "number": 1,
    "name": "Scorpions",
    "surname": "",
    "link": "https://open.spotify.com/track/3ovjw5HZZv43SxTwApooCM?si=u21PVuieT6argyg0Gr9nIg"
  },
  {
    "number": 2,
    "name": "The Beatles",
    "surname": "",
    "link": "https://open.spotify.com/track/6dGnYIeXmHdcikdzNNDMm2?si=4tKzsvgPQq2TPG5KKsEsbQ"
  },
  {
    "number": 3,
    "name": "Queen",
    "surname": "",
    "link": "https://open.spotify.com/track/4u7EnebtmKWzUH433cf5Qv?si=DjDzVFthS8maA0SOIH7RdQ"
  },
  {
    "number": 4,
    "name": "empty",
    "surname": "empty",
    "link": "e"
  },
  {
    "number": 5,
    "name": "empty",
    "surname": "empty",
    "link": ""
  },
  {
    "number": 6,
    "name": "empty",
    "surname": "empty",
    "link": ""
  },
  {
    "number": 7,
    "name": "empty",
    "surname": "empty",
    "link": ""
  },
  {
    "number": 8,
    "name": "empty",
    "surname": "empty",
    "link": ""
  },
  {
    "number": 9,
    "name": "empty",
    "surname": "empty",
    "link": ""
  },
  {
    "number": 10,
    "name": "empty",
    "surname": "empty",
    "link": ""
  },
  {
    "number": 11,
    "name": "empty",
    "surname": "empty",
    "link": ""
  },
  {
    "number": 12,
    "name": "empty",
    "surname": "empty",
    "link": ""
  },
  {
    "number": 13,
    "name": "empty",
    "surname": "empty",
    "link": ""
  },
  {
    "number": 14,
    "name": "empty",
    "surname": "empty",
    "link": ""
  },
  {
    "number": 15,
    "name": "empty",
    "surname": "empty",
    "link": ""
  },
  {
    "number": 16,
    "name": "empty",
    "surname": "empty",
    "link": ""
  },
  {
    "number": 17,
    "name": "empty",
    "surname": "empty",
    "link": ""
  },
  {
    "number": 18,
    "name": "empty",
    "surname": "empty",
    "link": ""
  },
  {
    "number": 19,
    "name": "empty",
    "surname": "empty",
    "link": ""
  },
  {
    "number": 20,
    "name": "empty",
    "surname": "empty",
    "link": ""
  }
]
